{
    "cSpell.dictionaries": [
        "fr",
        "en"
    ],
    "cSpell.language": "en,fr",
    "cSpell.enabledLanguageIds": [
        "asciidoc",
        "markdown",
        "text"
    ],
    "cSpell.words": [
        "adoc",
        "coderay"
    ]
    
}